{"pageProps":{"posts":[{"slugs":["test","long-expected-party copy 11"],"title":"A Long-expected Party","excerpt":"Gandalf arrives in the Shire for Bilbo's Farewell Birthday Party. Bilbo leaves the Shire permanently.","date":"Wed Mar 02 2022 00:00:00 GMT+0000 (Coordinated Universal Time)","link":"/post/test/long-expected-party copy 11","tags":null},{"slugs":["test","long-expected-party copy 4"],"title":"A Long-expected Party","excerpt":"Gandalf arrives in the Shire for Bilbo's Farewell Birthday Party. Bilbo leaves the Shire permanently.","date":"Wed Mar 02 2022 00:00:00 GMT+0000 (Coordinated Universal Time)","link":"/post/test/long-expected-party copy 4","tags":null},{"slugs":["test","long-expected-party copy 5"],"title":"A Long-expected Party","excerpt":"Gandalf arrives in the Shire for Bilbo's Farewell Birthday Party. Bilbo leaves the Shire permanently.","date":"Wed Mar 02 2022 00:00:00 GMT+0000 (Coordinated Universal Time)","link":"/post/test/long-expected-party copy 5","tags":null},{"slugs":["test","long-expected-party copy 6"],"title":"A Long-expected Party","excerpt":"Gandalf arrives in the Shire for Bilbo's Farewell Birthday Party. Bilbo leaves the Shire permanently.","date":"Wed Mar 02 2022 00:00:00 GMT+0000 (Coordinated Universal Time)","link":"/post/test/long-expected-party copy 6","tags":null},{"slugs":["test","long-expected-party copy 7"],"title":"A Long-expected Party","excerpt":"Gandalf arrives in the Shire for Bilbo's Farewell Birthday Party. Bilbo leaves the Shire permanently.","date":"Wed Mar 02 2022 00:00:00 GMT+0000 (Coordinated Universal Time)","link":"/post/test/long-expected-party copy 7","tags":null},{"slugs":["test","long-expected-party copy 8"],"title":"A Long-expected Party","excerpt":"Gandalf arrives in the Shire for Bilbo's Farewell Birthday Party. Bilbo leaves the Shire permanently.","date":"Wed Mar 02 2022 00:00:00 GMT+0000 (Coordinated Universal Time)","link":"/post/test/long-expected-party copy 8","tags":null},{"slugs":["test","long-expected-party copy 9"],"title":"A Long-expected Party","excerpt":"Gandalf arrives in the Shire for Bilbo's Farewell Birthday Party. Bilbo leaves the Shire permanently.","date":"Wed Mar 02 2022 00:00:00 GMT+0000 (Coordinated Universal Time)","link":"/post/test/long-expected-party copy 9","tags":null},{"slugs":["test","long-expected-party"],"title":"A Long-expected Party","excerpt":"Gandalf arrives in the Shire for Bilbo's Farewell Birthday Party. Bilbo leaves the Shire permanently.","date":"Wed Mar 02 2022 00:00:00 GMT+0000 (Coordinated Universal Time)","link":"/post/test/long-expected-party","tags":null},{"slugs":["prancing-pony"],"title":"At the Sign of the Prancing Pony when u can come here how to resolve it","excerpt":"The Hobbits reach the The Prancing Pony inn at Bree, where Frodo uses a false name, Underhill.The Hobbits reach the The Prancing Pony inn at Bree, where Frodo uses a false name, Underhill.The Hobbits reach the The Prancing Pony inn at Bree, where Frodo uses a false name, Underhill.The Hobbits reach the The Prancing Pony inn at Bree, where Frodo uses a false name, Underhill.The Hobbits reach the The Prancing Pony inn at Bree, where Frodo uses a false name, Underhill.","date":"2021-03-03","link":"/post/prancing-pony","tags":["test","helloasdasdsadasdasdadsada","test1","hello1","test2","hello2","test3","hello3","test4","hello4","test5","hello5","test6","hello6"]},{"slugs":["riders-of-rohan"],"title":"如果如果如果如果如果如果如果如果如果如果如果如果如果如果如果如果如果如果如果如果如果如果如果如果如果如果如果如果如果如果如果如果如果如果如果如果如果如果如果如果如果如果如果如果","excerpt":"如果如果如果如果如果如果如果如果如果如果如果如果如果如果如果如果如果如果如果如果如果如果如果如果如果如果如果如果如果如果如果如果如果如果如果如果如果如果如果如果如果如果如果如果如果如果如果如果如果如果如果如果如果如果如果如果如果如果如果如果如果如果如果如果如果如果如果如果如果如果如果如果如果如果如果如果如果如果如果如果如果如果如果如果如果如果如果如果如果如果如果如果如果如果如果如果如果如果","date":"2021-03-03","link":"/post/riders-of-rohan","tags":null}],"pagination":{"total":38,"page":2,"size":10,"prev":1,"next":3,"pagenum":4,"canPrev":true,"canNext":true}},"__N_SSG":true}