{"pageProps":{"posts":[{"slugs":["test","prancing-pony copy 2"],"title":"At the Sign of the Prancing Pony when u can come here how to resolve it","excerpt":"The Hobbits reach the The Prancing Pony inn at Bree, where Frodo uses a false name, Underhill.The Hobbits reach the The Prancing Pony inn at Bree, where Frodo uses a false name, Underhill.The Hobbits reach the The Prancing Pony inn at Bree, where Frodo uses a false name, Underhill.The Hobbits reach the The Prancing Pony inn at Bree, where Frodo uses a false name, Underhill.The Hobbits reach the The Prancing Pony inn at Bree, where Frodo uses a false name, Underhill.","date":"2021-03-03","link":"/post/test/prancing-pony copy 2","tags":["test","helloasdasdsadasdasdadsada","test1","hello1","test2","hello2","test3","hello3","test4","hello4","test5","hello5","test6","hello6"]},{"slugs":["test","prancing-pony copy 3"],"title":"At the Sign of the Prancing Pony when u can come here how to resolve it","excerpt":"The Hobbits reach the The Prancing Pony inn at Bree, where Frodo uses a false name, Underhill.The Hobbits reach the The Prancing Pony inn at Bree, where Frodo uses a false name, Underhill.The Hobbits reach the The Prancing Pony inn at Bree, where Frodo uses a false name, Underhill.The Hobbits reach the The Prancing Pony inn at Bree, where Frodo uses a false name, Underhill.The Hobbits reach the The Prancing Pony inn at Bree, where Frodo uses a false name, Underhill.","date":"2021-03-03","link":"/post/test/prancing-pony copy 3","tags":["test","helloasdasdsadasdasdadsada","test1","hello1","test2","hello2","test3","hello3","test4","hello4","test5","hello5","test6","hello6"]},{"slugs":["test","prancing-pony copy"],"title":"At the Sign of the Prancing Pony when u can come here how to resolve it","excerpt":"The Hobbits reach the The Prancing Pony inn at Bree, where Frodo uses a false name, Underhill.The Hobbits reach the The Prancing Pony inn at Bree, where Frodo uses a false name, Underhill.The Hobbits reach the The Prancing Pony inn at Bree, where Frodo uses a false name, Underhill.The Hobbits reach the The Prancing Pony inn at Bree, where Frodo uses a false name, Underhill.The Hobbits reach the The Prancing Pony inn at Bree, where Frodo uses a false name, Underhill.","date":"2021-03-03","link":"/post/test/prancing-pony copy","tags":["test","helloasdasdsadasdasdadsada","test1","hello1","test2","hello2","test3","hello3","test4","hello4","test5","hello5","test6","hello6"]},{"slugs":["test","prancing-pony"],"title":"At the Sign of the Prancing Pony when u can come here how to resolve it","excerpt":"The Hobbits reach the The Prancing Pony inn at Bree, where Frodo uses a false name, Underhill.The Hobbits reach the The Prancing Pony inn at Bree, where Frodo uses a false name, Underhill.The Hobbits reach the The Prancing Pony inn at Bree, where Frodo uses a false name, Underhill.The Hobbits reach the The Prancing Pony inn at Bree, where Frodo uses a false name, Underhill.The Hobbits reach the The Prancing Pony inn at Bree, where Frodo uses a false name, Underhill.","date":"2021-03-03","link":"/post/test/prancing-pony","tags":["test","helloasdasdsadasdasdadsada","test1","hello1","test2","hello2","test3","hello3","test4","hello4","test5","hello5","test6","hello6"]},{"slugs":["test","riders-of-rohan copy 2"],"title":"如果如果如果如果如果如果如果如果如果如果如果如果如果如果如果如果如果如果如果如果如果如果如果如果如果如果如果如果如果如果如果如果如果如果如果如果如果如果如果如果如果如果如果如果","excerpt":"如果如果如果如果如果如果如果如果如果如果如果如果如果如果如果如果如果如果如果如果如果如果如果如果如果如果如果如果如果如果如果如果如果如果如果如果如果如果如果如果如果如果如果如果如果如果如果如果如果如果如果如果如果如果如果如果如果如果如果如果如果如果如果如果如果如果如果如果如果如果如果如果如果如果如果如果如果如果如果如果如果如果如果如果如果如果如果如果如果如果如果如果如果如果如果如果如果如果","date":"2021-03-03","link":"/post/test/riders-of-rohan copy 2","tags":null},{"slugs":["test","riders-of-rohan copy 3"],"title":"如果如果如果如果如果如果如果如果如果如果如果如果如果如果如果如果如果如果如果如果如果如果如果如果如果如果如果如果如果如果如果如果如果如果如果如果如果如果如果如果如果如果如果如果","excerpt":"如果如果如果如果如果如果如果如果如果如果如果如果如果如果如果如果如果如果如果如果如果如果如果如果如果如果如果如果如果如果如果如果如果如果如果如果如果如果如果如果如果如果如果如果如果如果如果如果如果如果如果如果如果如果如果如果如果如果如果如果如果如果如果如果如果如果如果如果如果如果如果如果如果如果如果如果如果如果如果如果如果如果如果如果如果如果如果如果如果如果如果如果如果如果如果如果如果如果","date":"2021-03-03","link":"/post/test/riders-of-rohan copy 3","tags":null},{"slugs":["test","riders-of-rohan copy"],"title":"如果如果如果如果如果如果如果如果如果如果如果如果如果如果如果如果如果如果如果如果如果如果如果如果如果如果如果如果如果如果如果如果如果如果如果如果如果如果如果如果如果如果如果如果","excerpt":"如果如果如果如果如果如果如果如果如果如果如果如果如果如果如果如果如果如果如果如果如果如果如果如果如果如果如果如果如果如果如果如果如果如果如果如果如果如果如果如果如果如果如果如果如果如果如果如果如果如果如果如果如果如果如果如果如果如果如果如果如果如果如果如果如果如果如果如果如果如果如果如果如果如果如果如果如果如果如果如果如果如果如果如果如果如果如果如果如果如果如果如果如果如果如果如果如果如果","date":"2021-03-03","link":"/post/test/riders-of-rohan copy","tags":null},{"slugs":["test","riders-of-rohan"],"title":"如果如果如果如果如果如果如果如果如果如果如果如果如果如果如果如果如果如果如果如果如果如果如果如果如果如果如果如果如果如果如果如果如果如果如果如果如果如果如果如果如果如果如果如果","excerpt":"如果如果如果如果如果如果如果如果如果如果如果如果如果如果如果如果如果如果如果如果如果如果如果如果如果如果如果如果如果如果如果如果如果如果如果如果如果如果如果如果如果如果如果如果如果如果如果如果如果如果如果如果如果如果如果如果如果如果如果如果如果如果如果如果如果如果如果如果如果如果如果如果如果如果如果如果如果如果如果如果如果如果如果如果如果如果如果如果如果如果如果如果如果如果如果如果如果如果","date":"2021-03-03","link":"/post/test/riders-of-rohan","tags":null},{"slugs":["long-expected-party"],"title":"A Long-expected Party","excerpt":"Gandalf arrives in the Shire for Bilbo's Farewell Birthday Party. Bilbo leaves the Shire permanently.","date":"Tue Mar 02 2021 00:00:00 GMT+0000 (Coordinated Universal Time)","link":"/post/long-expected-party","tags":null},{"slugs":["test","long-expected-party copy 2"],"title":"A Long-expected Party","excerpt":"Gandalf arrives in the Shire for Bilbo's Farewell Birthday Party. Bilbo leaves the Shire permanently.","date":"Tue Mar 02 2021 00:00:00 GMT+0000 (Coordinated Universal Time)","link":"/post/test/long-expected-party copy 2","tags":null}],"pagination":{"total":38,"page":3,"size":10,"prev":2,"next":4,"pagenum":4,"canPrev":true,"canNext":true}},"__N_SSG":true}