{"pageProps":{"posts":[{"slugs":["test","long-expected-party copy 3"],"title":"A Long-expected Party","excerpt":"Gandalf arrives in the Shire for Bilbo's Farewell Birthday Party. Bilbo leaves the Shire permanently.","date":"Tue Mar 02 2021 00:00:00 GMT+0000 (Coordinated Universal Time)","link":"/post/test/long-expected-party copy 3","tags":null},{"slugs":["test","long-expected-party copy"],"title":"A Long-expected Party","excerpt":"Gandalf arrives in the Shire for Bilbo's Farewell Birthday Party. Bilbo leaves the Shire permanently.","date":"Tue Mar 02 2021 00:00:00 GMT+0000 (Coordinated Universal Time)","link":"/post/test/long-expected-party copy","tags":null},{"slugs":["passing-of-grey-company"],"title":"The Passing of the Grey Company","excerpt":"Aragorn, Legolas, and Gimli are accompanied by the Grey Company as they pass through the Paths of the Dead between Rohan and Gondor.","date":"2021-01-22","link":"/post/passing-of-grey-company","tags":["test"]},{"slugs":["test","passing-of-grey-company copy 2"],"title":"The Passing of the Grey Company","excerpt":"Aragorn, Legolas, and Gimli are accompanied by the Grey Company as they pass through the Paths of the Dead between Rohan and Gondor.","date":"2021-01-22","link":"/post/test/passing-of-grey-company copy 2","tags":["test"]},{"slugs":["test","passing-of-grey-company copy 3"],"title":"The Passing of the Grey Company","excerpt":"Aragorn, Legolas, and Gimli are accompanied by the Grey Company as they pass through the Paths of the Dead between Rohan and Gondor.","date":"2021-01-22","link":"/post/test/passing-of-grey-company copy 3","tags":["test"]},{"slugs":["test","passing-of-grey-company copy"],"title":"The Passing of the Grey Company","excerpt":"Aragorn, Legolas, and Gimli are accompanied by the Grey Company as they pass through the Paths of the Dead between Rohan and Gondor.","date":"2021-01-22","link":"/post/test/passing-of-grey-company copy","tags":["test"]},{"slugs":["test","passing-of-grey-company"],"title":"The Passing of the Grey Company","excerpt":"Aragorn, Legolas, and Gimli are accompanied by the Grey Company as they pass through the Paths of the Dead between Rohan and Gondor.","date":"2021-01-22","link":"/post/test/passing-of-grey-company","tags":["test"]},{"slugs":["test","long-expected-party copy 21"],"title":"A Long-expected Party","excerpt":"Gandalf arrives in the Shire for Bilbo's Farewell Birthday Party. Bilbo leaves the Shire permanently.","date":"Sun Feb 02 2020 00:00:00 GMT+0000 (Coordinated Universal Time)","link":"/post/test/long-expected-party copy 21","tags":null}],"pagination":{"total":38,"page":4,"size":10,"prev":3,"next":4,"pagenum":4,"canPrev":true,"canNext":false}},"__N_SSG":true}