{"pageProps":{"posts":[{"slugs":["test","long-expected-party copy 15"],"title":"A Long-expected Party","excerpt":"Gandalf arrives in the Shire for Bilbo's Farewell Birthday Party. Bilbo leaves the Shire permanently.","date":"Sat Mar 02 2024 00:00:00 GMT+0000 (Coordinated Universal Time)","link":"/post/test/long-expected-party copy 15","tags":null},{"slugs":["test","long-expected-party copy 16"],"title":"A Long-expected Party","excerpt":"Gandalf arrives in the Shire for Bilbo's Farewell Birthday Party. Bilbo leaves the Shire permanently.","date":"Sat Mar 02 2024 00:00:00 GMT+0000 (Coordinated Universal Time)","link":"/post/test/long-expected-party copy 16","tags":null},{"slugs":["test","long-expected-party copy 17"],"title":"A Long-expected Party","excerpt":"Gandalf arrives in the Shire for Bilbo's Farewell Birthday Party. Bilbo leaves the Shire permanently.","date":"Sat Mar 02 2024 00:00:00 GMT+0000 (Coordinated Universal Time)","link":"/post/test/long-expected-party copy 17","tags":null}],"pagination":{"total":9,"page":2,"size":3,"prev":1,"next":3,"pagenum":3,"canPrev":true,"canNext":true},"condition":{"endWith":"2024/3"}},"__N_SSG":true}