{"pageProps":{"posts":[{"slugs":["test","long-expected-party copy 10"],"title":"A Long-expected Party","excerpt":"Gandalf arrives in the Shire for Bilbo's Farewell Birthday Party. Bilbo leaves the Shire permanently.","date":"Wed Mar 02 2022 00:00:00 GMT+0000 (Coordinated Universal Time)","link":"/post/test/long-expected-party copy 10","tags":null},{"slugs":["test","long-expected-party copy 11"],"title":"A Long-expected Party","excerpt":"Gandalf arrives in the Shire for Bilbo's Farewell Birthday Party. Bilbo leaves the Shire permanently.","date":"Wed Mar 02 2022 00:00:00 GMT+0000 (Coordinated Universal Time)","link":"/post/test/long-expected-party copy 11","tags":null},{"slugs":["test","long-expected-party copy 4"],"title":"A Long-expected Party","excerpt":"Gandalf arrives in the Shire for Bilbo's Farewell Birthday Party. Bilbo leaves the Shire permanently.","date":"Wed Mar 02 2022 00:00:00 GMT+0000 (Coordinated Universal Time)","link":"/post/test/long-expected-party copy 4","tags":null}],"pagination":{"total":9,"page":1,"size":3,"prev":1,"next":2,"pagenum":3,"canPrev":false,"canNext":true},"condition":{"endWith":"2022/3"}},"__N_SSG":true}