{"pageProps":{"posts":[{"slugs":["test","long-expected-party copy 5"],"title":"A Long-expected Party","excerpt":"Gandalf arrives in the Shire for Bilbo's Farewell Birthday Party. Bilbo leaves the Shire permanently.","date":"Wed Mar 02 2022 00:00:00 GMT+0000 (Coordinated Universal Time)","link":"/post/test/long-expected-party copy 5","tags":null},{"slugs":["test","long-expected-party copy 6"],"title":"A Long-expected Party","excerpt":"Gandalf arrives in the Shire for Bilbo's Farewell Birthday Party. Bilbo leaves the Shire permanently.","date":"Wed Mar 02 2022 00:00:00 GMT+0000 (Coordinated Universal Time)","link":"/post/test/long-expected-party copy 6","tags":null},{"slugs":["test","long-expected-party copy 7"],"title":"A Long-expected Party","excerpt":"Gandalf arrives in the Shire for Bilbo's Farewell Birthday Party. Bilbo leaves the Shire permanently.","date":"Wed Mar 02 2022 00:00:00 GMT+0000 (Coordinated Universal Time)","link":"/post/test/long-expected-party copy 7","tags":null}],"pagination":{"total":9,"page":2,"size":3,"prev":1,"next":3,"pagenum":3,"canPrev":true,"canNext":true},"condition":{"endWith":"2022/3"}},"__N_SSG":true}