{"pageProps":{"posts":[{"slugs":["test","long-expected-party copy 8"],"title":"A Long-expected Party","excerpt":"Gandalf arrives in the Shire for Bilbo's Farewell Birthday Party. Bilbo leaves the Shire permanently.","date":"Wed Mar 02 2022 00:00:00 GMT+0000 (Coordinated Universal Time)","link":"/post/test/long-expected-party copy 8","tags":null},{"slugs":["test","long-expected-party copy 9"],"title":"A Long-expected Party","excerpt":"Gandalf arrives in the Shire for Bilbo's Farewell Birthday Party. Bilbo leaves the Shire permanently.","date":"Wed Mar 02 2022 00:00:00 GMT+0000 (Coordinated Universal Time)","link":"/post/test/long-expected-party copy 9","tags":null},{"slugs":["test","long-expected-party"],"title":"A Long-expected Party","excerpt":"Gandalf arrives in the Shire for Bilbo's Farewell Birthday Party. Bilbo leaves the Shire permanently.","date":"Wed Mar 02 2022 00:00:00 GMT+0000 (Coordinated Universal Time)","link":"/post/test/long-expected-party","tags":null}],"pagination":{"total":9,"page":3,"size":3,"prev":2,"next":3,"pagenum":3,"canPrev":true,"canNext":false},"condition":{"endWith":"2022/3"}},"__N_SSG":true}