{"pageProps":{"posts":[{"slugs":["test","long-expected-party copy 12"],"title":"A Long-expected Party","excerpt":"Gandalf arrives in the Shire for Bilbo's Farewell Birthday Party. Bilbo leaves the Shire permanently.","date":"Sat Mar 02 2024 00:00:00 GMT+0000 (Coordinated Universal Time)","link":"/post/test/long-expected-party copy 12","tags":null},{"slugs":["test","long-expected-party copy 13"],"title":"A Long-expected Party","excerpt":"Gandalf arrives in the Shire for Bilbo's Farewell Birthday Party. Bilbo leaves the Shire permanently.","date":"Sat Mar 02 2024 00:00:00 GMT+0000 (Coordinated Universal Time)","link":"/post/test/long-expected-party copy 13","tags":null},{"slugs":["test","long-expected-party copy 14"],"title":"A Long-expected Party","excerpt":"Gandalf arrives in the Shire for Bilbo's Farewell Birthday Party. Bilbo leaves the Shire permanently.","date":"Sat Mar 02 2024 00:00:00 GMT+0000 (Coordinated Universal Time)","link":"/post/test/long-expected-party copy 14","tags":null},{"slugs":["test","long-expected-party copy 15"],"title":"A Long-expected Party","excerpt":"Gandalf arrives in the Shire for Bilbo's Farewell Birthday Party. Bilbo leaves the Shire permanently.","date":"Sat Mar 02 2024 00:00:00 GMT+0000 (Coordinated Universal Time)","link":"/post/test/long-expected-party copy 15","tags":null},{"slugs":["test","long-expected-party copy 16"],"title":"A Long-expected Party","excerpt":"Gandalf arrives in the Shire for Bilbo's Farewell Birthday Party. Bilbo leaves the Shire permanently.","date":"Sat Mar 02 2024 00:00:00 GMT+0000 (Coordinated Universal Time)","link":"/post/test/long-expected-party copy 16","tags":null},{"slugs":["test","long-expected-party copy 17"],"title":"A Long-expected Party","excerpt":"Gandalf arrives in the Shire for Bilbo's Farewell Birthday Party. Bilbo leaves the Shire permanently.","date":"Sat Mar 02 2024 00:00:00 GMT+0000 (Coordinated Universal Time)","link":"/post/test/long-expected-party copy 17","tags":null},{"slugs":["test","long-expected-party copy 18"],"title":"A Long-expected Party","excerpt":"Gandalf arrives in the Shire for Bilbo's Farewell Birthday Party. Bilbo leaves the Shire permanently.","date":"Sat Mar 02 2024 00:00:00 GMT+0000 (Coordinated Universal Time)","link":"/post/test/long-expected-party copy 18","tags":null},{"slugs":["test","long-expected-party copy 19"],"title":"A Long-expected Party","excerpt":"Gandalf arrives in the Shire for Bilbo's Farewell Birthday Party. Bilbo leaves the Shire permanently.","date":"Sat Mar 02 2024 00:00:00 GMT+0000 (Coordinated Universal Time)","link":"/post/test/long-expected-party copy 19","tags":null},{"slugs":["test","long-expected-party copy 20"],"title":"A Long-expected Party","excerpt":"Gandalf arrives in the Shire for Bilbo's Farewell Birthday Party. Bilbo leaves the Shire permanently.","date":"Sat Mar 02 2024 00:00:00 GMT+0000 (Coordinated Universal Time)","link":"/post/test/long-expected-party copy 20","tags":null},{"slugs":["test","long-expected-party copy 10"],"title":"A Long-expected Party","excerpt":"Gandalf arrives in the Shire for Bilbo's Farewell Birthday Party. Bilbo leaves the Shire permanently.","date":"Wed Mar 02 2022 00:00:00 GMT+0000 (Coordinated Universal Time)","link":"/post/test/long-expected-party copy 10","tags":null}],"pagination":{"total":38,"page":1,"size":10,"prev":1,"next":2,"pagenum":4,"canPrev":false,"canNext":true}},"__N_SSG":true}