{"pageProps":{"posts":[{"slugs":["test","long-expected-party copy 12"],"title":"A Long-expected Party","excerpt":"Gandalf arrives in the Shire for Bilbo's Farewell Birthday Party. Bilbo leaves the Shire permanently.","date":"Sat Mar 02 2024 00:00:00 GMT+0000 (Coordinated Universal Time)","link":"/post/test/long-expected-party copy 12","tags":null},{"slugs":["test","long-expected-party copy 13"],"title":"A Long-expected Party","excerpt":"Gandalf arrives in the Shire for Bilbo's Farewell Birthday Party. Bilbo leaves the Shire permanently.","date":"Sat Mar 02 2024 00:00:00 GMT+0000 (Coordinated Universal Time)","link":"/post/test/long-expected-party copy 13","tags":null},{"slugs":["test","long-expected-party copy 14"],"title":"A Long-expected Party","excerpt":"Gandalf arrives in the Shire for Bilbo's Farewell Birthday Party. Bilbo leaves the Shire permanently.","date":"Sat Mar 02 2024 00:00:00 GMT+0000 (Coordinated Universal Time)","link":"/post/test/long-expected-party copy 14","tags":null}],"pagination":{"total":9,"page":1,"size":3,"prev":1,"next":2,"pagenum":3,"canPrev":false,"canNext":true},"condition":{"endWith":"2024/3"}},"__N_SSG":true}