{"pageProps":{"posts":[{"slugs":["prancing-pony"],"title":"At the Sign of the Prancing Pony when u can come here how to resolve it","excerpt":"The Hobbits reach the The Prancing Pony inn at Bree, where Frodo uses a false name, Underhill.The Hobbits reach the The Prancing Pony inn at Bree, where Frodo uses a false name, Underhill.The Hobbits reach the The Prancing Pony inn at Bree, where Frodo uses a false name, Underhill.The Hobbits reach the The Prancing Pony inn at Bree, where Frodo uses a false name, Underhill.The Hobbits reach the The Prancing Pony inn at Bree, where Frodo uses a false name, Underhill.","date":"2021-03-03","link":"/post/prancing-pony","tags":["test","helloasdasdsadasdasdadsada","test1","hello1","test2","hello2","test3","hello3","test4","hello4","test5","hello5","test6","hello6"]},{"slugs":["riders-of-rohan"],"title":"如果如果如果如果如果如果如果如果如果如果如果如果如果如果如果如果如果如果如果如果如果如果如果如果如果如果如果如果如果如果如果如果如果如果如果如果如果如果如果如果如果如果如果如果","excerpt":"如果如果如果如果如果如果如果如果如果如果如果如果如果如果如果如果如果如果如果如果如果如果如果如果如果如果如果如果如果如果如果如果如果如果如果如果如果如果如果如果如果如果如果如果如果如果如果如果如果如果如果如果如果如果如果如果如果如果如果如果如果如果如果如果如果如果如果如果如果如果如果如果如果如果如果如果如果如果如果如果如果如果如果如果如果如果如果如果如果如果如果如果如果如果如果如果如果如果","date":"2021-03-03","link":"/post/riders-of-rohan","tags":null},{"slugs":["test","prancing-pony copy 2"],"title":"At the Sign of the Prancing Pony when u can come here how to resolve it","excerpt":"The Hobbits reach the The Prancing Pony inn at Bree, where Frodo uses a false name, Underhill.The Hobbits reach the The Prancing Pony inn at Bree, where Frodo uses a false name, Underhill.The Hobbits reach the The Prancing Pony inn at Bree, where Frodo uses a false name, Underhill.The Hobbits reach the The Prancing Pony inn at Bree, where Frodo uses a false name, Underhill.The Hobbits reach the The Prancing Pony inn at Bree, where Frodo uses a false name, Underhill.","date":"2021-03-03","link":"/post/test/prancing-pony copy 2","tags":["test","helloasdasdsadasdasdadsada","test1","hello1","test2","hello2","test3","hello3","test4","hello4","test5","hello5","test6","hello6"]}],"pagination":{"total":14,"page":1,"size":3,"prev":1,"next":2,"pagenum":5,"canPrev":false,"canNext":true},"condition":{"endWith":"2021/3"}},"__N_SSG":true}