{"pageProps":{"posts":[{"slugs":["test","prancing-pony copy 3"],"title":"At the Sign of the Prancing Pony when u can come here how to resolve it","excerpt":"The Hobbits reach the The Prancing Pony inn at Bree, where Frodo uses a false name, Underhill.The Hobbits reach the The Prancing Pony inn at Bree, where Frodo uses a false name, Underhill.The Hobbits reach the The Prancing Pony inn at Bree, where Frodo uses a false name, Underhill.The Hobbits reach the The Prancing Pony inn at Bree, where Frodo uses a false name, Underhill.The Hobbits reach the The Prancing Pony inn at Bree, where Frodo uses a false name, Underhill.","date":"2021-03-03","link":"/post/test/prancing-pony copy 3","tags":["test","helloasdasdsadasdasdadsada","test1","hello1","test2","hello2","test3","hello3","test4","hello4","test5","hello5","test6","hello6"]},{"slugs":["test","prancing-pony copy"],"title":"At the Sign of the Prancing Pony when u can come here how to resolve it","excerpt":"The Hobbits reach the The Prancing Pony inn at Bree, where Frodo uses a false name, Underhill.The Hobbits reach the The Prancing Pony inn at Bree, where Frodo uses a false name, Underhill.The Hobbits reach the The Prancing Pony inn at Bree, where Frodo uses a false name, Underhill.The Hobbits reach the The Prancing Pony inn at Bree, where Frodo uses a false name, Underhill.The Hobbits reach the The Prancing Pony inn at Bree, where Frodo uses a false name, Underhill.","date":"2021-03-03","link":"/post/test/prancing-pony copy","tags":["test","helloasdasdsadasdasdadsada","test1","hello1","test2","hello2","test3","hello3","test4","hello4","test5","hello5","test6","hello6"]},{"slugs":["test","prancing-pony"],"title":"At the Sign of the Prancing Pony when u can come here how to resolve it","excerpt":"The Hobbits reach the The Prancing Pony inn at Bree, where Frodo uses a false name, Underhill.The Hobbits reach the The Prancing Pony inn at Bree, where Frodo uses a false name, Underhill.The Hobbits reach the The Prancing Pony inn at Bree, where Frodo uses a false name, Underhill.The Hobbits reach the The Prancing Pony inn at Bree, where Frodo uses a false name, Underhill.The Hobbits reach the The Prancing Pony inn at Bree, where Frodo uses a false name, Underhill.","date":"2021-03-03","link":"/post/test/prancing-pony","tags":["test","helloasdasdsadasdasdadsada","test1","hello1","test2","hello2","test3","hello3","test4","hello4","test5","hello5","test6","hello6"]}],"pagination":{"total":14,"page":2,"size":3,"prev":1,"next":3,"pagenum":5,"canPrev":true,"canNext":true},"condition":{"endWith":"2021/3"}},"__N_SSG":true}