{"pageProps":{"posts":[{"slugs":["test","riders-of-rohan copy 2"],"title":"如果如果如果如果如果如果如果如果如果如果如果如果如果如果如果如果如果如果如果如果如果如果如果如果如果如果如果如果如果如果如果如果如果如果如果如果如果如果如果如果如果如果如果如果","excerpt":"如果如果如果如果如果如果如果如果如果如果如果如果如果如果如果如果如果如果如果如果如果如果如果如果如果如果如果如果如果如果如果如果如果如果如果如果如果如果如果如果如果如果如果如果如果如果如果如果如果如果如果如果如果如果如果如果如果如果如果如果如果如果如果如果如果如果如果如果如果如果如果如果如果如果如果如果如果如果如果如果如果如果如果如果如果如果如果如果如果如果如果如果如果如果如果如果如果如果","date":"2021-03-03","link":"/post/test/riders-of-rohan copy 2","tags":null},{"slugs":["test","riders-of-rohan copy 3"],"title":"如果如果如果如果如果如果如果如果如果如果如果如果如果如果如果如果如果如果如果如果如果如果如果如果如果如果如果如果如果如果如果如果如果如果如果如果如果如果如果如果如果如果如果如果","excerpt":"如果如果如果如果如果如果如果如果如果如果如果如果如果如果如果如果如果如果如果如果如果如果如果如果如果如果如果如果如果如果如果如果如果如果如果如果如果如果如果如果如果如果如果如果如果如果如果如果如果如果如果如果如果如果如果如果如果如果如果如果如果如果如果如果如果如果如果如果如果如果如果如果如果如果如果如果如果如果如果如果如果如果如果如果如果如果如果如果如果如果如果如果如果如果如果如果如果如果","date":"2021-03-03","link":"/post/test/riders-of-rohan copy 3","tags":null},{"slugs":["test","riders-of-rohan copy"],"title":"如果如果如果如果如果如果如果如果如果如果如果如果如果如果如果如果如果如果如果如果如果如果如果如果如果如果如果如果如果如果如果如果如果如果如果如果如果如果如果如果如果如果如果如果","excerpt":"如果如果如果如果如果如果如果如果如果如果如果如果如果如果如果如果如果如果如果如果如果如果如果如果如果如果如果如果如果如果如果如果如果如果如果如果如果如果如果如果如果如果如果如果如果如果如果如果如果如果如果如果如果如果如果如果如果如果如果如果如果如果如果如果如果如果如果如果如果如果如果如果如果如果如果如果如果如果如果如果如果如果如果如果如果如果如果如果如果如果如果如果如果如果如果如果如果如果","date":"2021-03-03","link":"/post/test/riders-of-rohan copy","tags":null}],"pagination":{"total":14,"page":3,"size":3,"prev":2,"next":4,"pagenum":5,"canPrev":true,"canNext":true},"condition":{"endWith":"2021/3"}},"__N_SSG":true}