{"pageProps":{"posts":[{"slugs":["test","riders-of-rohan"],"title":"如果如果如果如果如果如果如果如果如果如果如果如果如果如果如果如果如果如果如果如果如果如果如果如果如果如果如果如果如果如果如果如果如果如果如果如果如果如果如果如果如果如果如果如果","excerpt":"如果如果如果如果如果如果如果如果如果如果如果如果如果如果如果如果如果如果如果如果如果如果如果如果如果如果如果如果如果如果如果如果如果如果如果如果如果如果如果如果如果如果如果如果如果如果如果如果如果如果如果如果如果如果如果如果如果如果如果如果如果如果如果如果如果如果如果如果如果如果如果如果如果如果如果如果如果如果如果如果如果如果如果如果如果如果如果如果如果如果如果如果如果如果如果如果如果如果","date":"2021-03-03","link":"/post/test/riders-of-rohan","tags":null},{"slugs":["long-expected-party"],"title":"A Long-expected Party","excerpt":"Gandalf arrives in the Shire for Bilbo's Farewell Birthday Party. Bilbo leaves the Shire permanently.","date":"Tue Mar 02 2021 00:00:00 GMT+0000 (Coordinated Universal Time)","link":"/post/long-expected-party","tags":null},{"slugs":["test","long-expected-party copy 2"],"title":"A Long-expected Party","excerpt":"Gandalf arrives in the Shire for Bilbo's Farewell Birthday Party. Bilbo leaves the Shire permanently.","date":"Tue Mar 02 2021 00:00:00 GMT+0000 (Coordinated Universal Time)","link":"/post/test/long-expected-party copy 2","tags":null}],"pagination":{"total":14,"page":4,"size":3,"prev":3,"next":5,"pagenum":5,"canPrev":true,"canNext":true},"condition":{"endWith":"2021/3"}},"__N_SSG":true}