{"pageProps":{"posts":[{"slugs":["test","long-expected-party copy 3"],"title":"A Long-expected Party","excerpt":"Gandalf arrives in the Shire for Bilbo's Farewell Birthday Party. Bilbo leaves the Shire permanently.","date":"Tue Mar 02 2021 00:00:00 GMT+0000 (Coordinated Universal Time)","link":"/post/test/long-expected-party copy 3","tags":null},{"slugs":["test","long-expected-party copy"],"title":"A Long-expected Party","excerpt":"Gandalf arrives in the Shire for Bilbo's Farewell Birthday Party. Bilbo leaves the Shire permanently.","date":"Tue Mar 02 2021 00:00:00 GMT+0000 (Coordinated Universal Time)","link":"/post/test/long-expected-party copy","tags":null}],"pagination":{"total":14,"page":5,"size":3,"prev":4,"next":5,"pagenum":5,"canPrev":true,"canNext":false},"condition":{"endWith":"2021/3"}},"__N_SSG":true}