{"pageProps":{"posts":[{"slugs":["test","passing-of-grey-company copy"],"title":"The Passing of the Grey Company","excerpt":"Aragorn, Legolas, and Gimli are accompanied by the Grey Company as they pass through the Paths of the Dead between Rohan and Gondor.","date":"2021-01-22","link":"/post/test/passing-of-grey-company copy","tags":["test"]},{"slugs":["test","passing-of-grey-company"],"title":"The Passing of the Grey Company","excerpt":"Aragorn, Legolas, and Gimli are accompanied by the Grey Company as they pass through the Paths of the Dead between Rohan and Gondor.","date":"2021-01-22","link":"/post/test/passing-of-grey-company","tags":["test"]}],"pagination":{"total":5,"page":2,"size":3,"prev":1,"next":2,"pagenum":2,"canPrev":true,"canNext":false},"condition":{"endWith":"2021/1"}},"__N_SSG":true}